Correlation | APS - WORKSHOP
…
library(tidyverse)
library(Hmisc)
library(corrplot)
library(readr)

Database

There are different options for working with data that is in a local folder. For many, the manual options with a data import are easier, but it is also useful to understand how you can directly read data into R. We will use both at time during the workshop, so do not stress too much for now.

# Introduce the data to R - in this situation, we apply the function read_csv the most important item is to know the physical location of the file. In this example, I mainain a copy in Documents folder on my Mac
  
correlations <- read_csv("Correlations.csv")
correlations

## # A tibble: 54 x 6
##    Treatment Count1 Count2 Yield Protein   Oil
##        <dbl>  <dbl>  <dbl> <dbl>   <dbl> <dbl>
##  1         1   241    241  2569.    35.4  19.6
##  2         1   241    250. 2905.    35.8  19.5
##  3         1   241    250. 3186.    36.2  19.3
##  4         2   396.   482  2887.    36    19  
##  5         2   284    275. 3389.    36.3  19.4
##  6         2   293.   310. 3482.    35.5  19.3
##  7         3   465.   473. 2836.    35.6  19.5
##  8         3   422.   456. 3361.    36.2  19.7
##  9         3   370.   379. 3569.    36.4  19.1
## 10         4   413.   448. 2919.    33.9  20  
## # ... with 44 more rows
…
